Map_inflation/hardware_impl/test_IP/sim_mb_customIP_multAdd/project_1/.Xil/Vivado-10914-audrey-Precision-5520/hw_ila_data_1/zip_work/waveform.vcd
$date
        2026-Jan-24 01:06:04
$end
$version
        Vivado v2024.2 (64-bit)
$end
$timescale
        1ps
$end
$scope module dut $end
$var reg 1 " design_1_i/axi_smc_M01_AXI_WREADY $end
$var reg 9 # design_1_i/axi_smc_M01_AXI_AWADDR [8:0] $end
$var reg 2 , design_1_i/axi_smc_M01_AXI_BRESP [1:0] $end
$var reg 1 . design_1_i/axi_smc_M01_AXI_BVALID $end
$var reg 1 / design_1_i/axi_smc_M01_AXI_BREADY $end
$var reg 9 0 design_1_i/axi_smc_M01_AXI_ARADDR [8:0] $end
$var reg 1 9 design_1_i/axi_smc_M01_AXI_RREADY $end
$var reg 1 : design_1_i/axi_smc_M01_AXI_WVALID $end
$var reg 1 ; design_1_i/axi_smc_M01_AXI_ARVALID $end
$var reg 1 < design_1_i/axi_smc_M01_AXI_ARREADY $end
$var reg 32 = design_1_i/axi_smc_M01_AXI_RDATA [31:0] $end
$var reg 1 ] design_1_i/axi_smc_M01_AXI_AWVALID $end
$var reg 1 ^ design_1_i/axi_smc_M01_AXI_AWREADY $end
$var reg 2 _ design_1_i/axi_smc_M01_AXI_RRESP [1:0] $end
$var reg 32 a design_1_i/axi_smc_M01_AXI_WDATA [31:0] $end
$var reg 4 #" design_1_i/axi_smc_M01_AXI_WSTRB [3:0] $end
$var reg 1 '" design_1_i/axi_smc_M01_AXI_RVALID $end
$var reg 3 (" design_1_i/axi_smc_M01_AXI_ARPROT [2:0] $end
$var reg 3 +" design_1_i/axi_smc_M01_AXI_AWPROT [2:0] $end
$var reg 1 ." _TRIGGER $end
$var reg 1 /" _WINDOW $end
$var reg 1 0" _GAP $end
$upscope $end
$enddefinitions $end
#0
$dumpvars
0"
b0 #
b0 ,
0.
0/
b1000 0
09
0:
0;
0<
b0 =
0]
0^
b0 _
b1110010101111101110 a
b1111 #"
0'"
b0 ("
b0 +"
0."
1/"
00"
$end
#17
1]
#18
1:
#22
1"
1^
#23
0"
1.
0:
0]
0^
#26
1/
#27
0.
0/
#29
1/
#30
0/
#66
1]
#67
1:
#71
1"
1^
#72
0"
1.
0:
0]
0^
#75
1/
#76
0.
0/
#78
1/
#79
0/
#115
1]
#116
1:
#120
1"
1^
#121
0"
1.
0:
0]
0^
#124
1/
#125
0.
0/
#127
1/
#128
0/
#164
1]
#165
1:
#169
1"
1^
#170
0"
1.
0:
0]
0^
#173
1/
#174
0.
0/
#176
1/
#177
0/
#213
1]
#214
1:
#218
1"
1^
#219
0"
1.
0:
0]
0^
#222
1/
#223
0.
0/
#225
1/
#226
0/
#262
1]
#263
1:
#267
1"
1^
#268
0"
1.
0:
0]
0^
#271
1/
#272
0.
0/
#274
1/
#275
0/
#311
1]
#312
1:
#316
1"
1^
#317
0"
1.
0:
0]
0^
#320
1/
#321
0.
0/
#323
1/
#324
0/
#360
1]
#361
1:
#365
1"
1^
#366
0"
1.
0:
0]
0^
#369
1/
#370
0.
0/
#372
1/
#373
0/
#409
1]
#410
1:
#414
1"
1^
#415
0"
1.
0:
0]
0^
#418
1/
#419
0.
0/
#421
1/
#422
0/
#458
1]
#459
1:
#463
1"
1^
#464
0"
1.
0:
0]
0^
#467
1/
#468
0.
0/
#470
1/
#471
0/
#507
1]
#508
1:
#512
1"
1^
1."
#513
0"
1.
0:
0]
0^
#516
1/
#517
0.
0/
#519
1/
#520
0/
#556
1]
#557
1:
#561
1"
1^
#562
0"
1.
0:
0]
0^
#565
1/
#566
0.
0/
#568
1/
#569
0/
#605
1]
#606
1:
#610
1"
1^
#611
0"
1.
0:
0]
0^
#614
1/
#615
0.
0/
#617
1/
#618
0/
#654
1]
#655
1:
#659
1"
1^
#660
0"
1.
0:
0]
0^
#663
1/
#664
0.
0/
#666
1/
#667
0/
#703
1]
#704
1:
#708
1"
1^
#709
0"
1.
0:
0]
0^
#712
1/
#713
0.
0/
#715
1/
#716
0/
#752
1]
#753
1:
#757
1"
1^
#758
0"
1.
0:
0]
0^
#761
1/
#762
0.
0/
#764
1/
#765
0/
#801
1]
#802
1:
#806
1"
1^
#807
0"
1.
0:
0]
0^
#810
1/
#811
0.
0/
#813
1/
#814
0/
#850
1]
#851
1:
#855
1"
1^
#856
0"
1.
0:
0]
0^
#859
1/
#860
0.
0/
#862
1/
#863
0/
#899
1]
#900
1:
#904
1"
1^
#905
0"
1.
0:
0]
0^
#908
1/
#909
0.
0/
#911
1/
#912
0/
#948
1]
#949
1:
#953
1"
1^
#954
0"
1.
0:
0]
0^
#957
1/
#958
0.
0/
#960
1/
#961
0/
#997
1]
#998
1:
#1002
1"
1^
#1003
0"
1.
0:
0]
0^
#1006
1/
#1007
0.
0/
#1009
1/
#1010
0/
