Map_inflation/hardware_impl/sim/work/xsim_247900.backup.log
#-----------------------------------------------------------
# xsim v2024.2 (64-bit)
# SW Build 5239630 on Fri Nov 08 22:34:34 MST 2024
# IP Build 5239520 on Sun Nov 10 16:12:51 MST 2024
# SharedData Build 5239561 on Fri Nov 08 14:39:27 MST 2024
# Start of session at: Sat Jan 24 21:43:41 2026
# Process ID         : 247900
# Current directory  : /home/audrey/Documents/convolution/Map_inflation/hardware_impl/sim/work
# Command line       : xsim -mode tcl -source {xsim.dir/work.tb_fifo/xsim_script.tcl}
# Log file           : /home/audrey/Documents/convolution/Map_inflation/hardware_impl/sim/work/xsim.log
# Journal file       : /home/audrey/Documents/convolution/Map_inflation/hardware_impl/sim/work/xsim.jou
# Running On         : audrey-Precision-5520
# Platform           : Ubuntu
# Operating System   : Ubuntu 22.04.5 LTS
# Processor Detail   : Intel(R) Core(TM) i7-7820HQ CPU @ 2.90GHz
# CPU Frequency      : 3627.838 MHz
# CPU Physical cores : 4
# CPU Logical cores  : 8
# Host memory        : 16612 MB
# Swap memory        : 2147 MB
# Total Virtual      : 18760 MB
# Available Virtual  : 6100 MB
#-----------------------------------------------------------
source xsim.dir/work.tb_fifo/xsim_script.tcl
# xsim {work.tb_fifo} -autoloadwcfg -runall
Time resolution is 1 ps
run -all
[22000] WRITE: WR = 1 dataIn=0 full=0 empty=0
[30000] WRITE: WR = 1 dataIn=1 full=0 empty=0
[34000] FIFO FULL: WR= 0  dataIn=2 full=1 empty=0
[38000] FIFO FULL: WR= 0  dataIn=2 full=1 empty=0
[42000] FIFO FULL: WR= 0  dataIn=2 full=1 empty=0
[46000] FIFO FULL: WR= 0  dataIn=2 full=1 empty=0
[50000] FIFO FULL: WR= 0  dataIn=2 full=1 empty=0
[54000] FIFO FULL: WR= 0  dataIn=2 full=1 empty=0
[58000] FIFO FULL: WR= 0  dataIn=2 full=1 empty=0
[62000] FIFO FULL: WR= 0  dataIn=2 full=1 empty=0
[66000] READ: RD= 1 dataOut=0 full=0 empty=0
[70000] WRITE: WR = 1 dataIn=2 full=1 empty=0
[74000] FIFO FULL: WR= 0  dataIn=3 full=1 empty=0
[78000] FIFO FULL: WR= 0  dataIn=3 full=1 empty=0
[82000] FIFO FULL: WR= 0  dataIn=3 full=1 empty=0
[86000] READ: RD= 1 dataOut=0 full=0 empty=0
[90000] WRITE: WR = 1 dataIn=3 full=1 empty=0
[94000] FIFO FULL: WR= 0  dataIn=4 full=1 empty=0
[98000] FIFO FULL: WR= 0  dataIn=4 full=1 empty=0
[102000] FIFO FULL: WR= 0  dataIn=4 full=1 empty=0
[106000] READ: RD= 1 dataOut=1 full=0 empty=0
[110000] WRITE: WR = 1 dataIn=4 full=1 empty=0
[114000] FIFO FULL: WR= 0  dataIn=5 full=1 empty=0
[118000] FIFO FULL: WR= 0  dataIn=5 full=1 empty=0
[122000] FIFO FULL: WR= 0  dataIn=5 full=1 empty=0
[126000] READ: RD= 1 dataOut=1 full=0 empty=0
[130000] WRITE: WR = 1 dataIn=5 full=1 empty=0
[134000] FIFO FULL: WR= 0  dataIn=6 full=1 empty=0
[138000] FIFO FULL: WR= 0  dataIn=6 full=1 empty=0
[142000] FIFO FULL: WR= 0  dataIn=6 full=1 empty=0
[146000] READ: RD= 1 dataOut=2 full=0 empty=0
[150000] WRITE: WR = 1 dataIn=6 full=1 empty=0
[154000] FIFO FULL: WR= 0  dataIn=7 full=1 empty=0
[158000] FIFO FULL: WR= 0  dataIn=7 full=1 empty=0
[162000] FIFO FULL: WR= 0  dataIn=7 full=1 empty=0
[166000] READ: RD= 1 dataOut=3 full=0 empty=0
[170000] WRITE: WR = 1 dataIn=7 full=1 empty=0
[174000] FIFO FULL: WR= 0  dataIn=8 full=1 empty=0
[178000] FIFO FULL: WR= 0  dataIn=8 full=1 empty=0
[182000] FIFO FULL: WR= 0  dataIn=8 full=1 empty=0
[186000] READ: RD= 1 dataOut=4 full=0 empty=0
[190000] WRITE: WR = 1 dataIn=8 full=1 empty=0
[194000] FIFO FULL: WR= 0  dataIn=9 full=1 empty=0
[198000] FIFO FULL: WR= 0  dataIn=9 full=1 empty=0
[202000] FIFO FULL: WR= 0  dataIn=9 full=1 empty=0
[206000] READ: RD= 1 dataOut=5 full=0 empty=0
[210000] WRITE: WR = 1 dataIn=9 full=1 empty=0
[214000] FIFO FULL: WR= 0  dataIn=10 full=1 empty=0
[218000] FIFO FULL: WR= 0  dataIn=10 full=1 empty=0
[222000] FIFO FULL: WR= 0  dataIn=10 full=1 empty=0
[226000] READ: RD= 1 dataOut=6 full=0 empty=0
[230000] WRITE: WR = 1 dataIn=10 full=1 empty=0
[234000] FIFO FULL: WR= 0  dataIn=11 full=1 empty=0
[238000] FIFO FULL: WR= 0  dataIn=11 full=1 empty=0
[242000] FIFO FULL: WR= 0  dataIn=11 full=1 empty=0
[246000] READ: RD= 1 dataOut=7 full=0 empty=0
[250000] WRITE: WR = 1 dataIn=11 full=1 empty=0
[254000] FIFO FULL: WR= 0  dataIn=12 full=1 empty=0
[258000] FIFO FULL: WR= 0  dataIn=12 full=1 empty=0
[262000] FIFO FULL: WR= 0  dataIn=12 full=1 empty=0
[266000] READ: RD= 1 dataOut=8 full=0 empty=0
[270000] WRITE: WR = 1 dataIn=12 full=1 empty=0
[274000] FIFO FULL: WR= 0  dataIn=13 full=1 empty=0
[278000] FIFO FULL: WR= 0  dataIn=13 full=1 empty=0
[282000] FIFO FULL: WR= 0  dataIn=13 full=1 empty=0
[286000] READ: RD= 1 dataOut=9 full=0 empty=0
[290000] WRITE: WR = 1 dataIn=13 full=1 empty=0
[294000] FIFO FULL: WR= 0  dataIn=14 full=1 empty=0
[298000] FIFO FULL: WR= 0  dataIn=14 full=1 empty=0
[302000] FIFO FULL: WR= 0  dataIn=14 full=1 empty=0
[306000] READ: RD= 1 dataOut=10 full=0 empty=0
[310000] WRITE: WR = 1 dataIn=14 full=1 empty=0
[314000] FIFO FULL: WR= 0  dataIn=15 full=1 empty=0
[318000] FIFO FULL: WR= 0  dataIn=15 full=1 empty=0
[322000] FIFO FULL: WR= 0  dataIn=15 full=1 empty=0
[326000] READ: RD= 1 dataOut=11 full=0 empty=0
[330000] WRITE: WR = 1 dataIn=15 full=1 empty=0
[334000] FIFO FULL: WR= 0  dataIn=16 full=1 empty=0
[338000] FIFO FULL: WR= 0  dataIn=16 full=1 empty=0
[342000] FIFO FULL: WR= 0  dataIn=16 full=1 empty=0
[346000] READ: RD= 1 dataOut=12 full=0 empty=0
[350000] WRITE: WR = 1 dataIn=16 full=1 empty=0
[354000] FIFO FULL: WR= 0  dataIn=17 full=1 empty=0
[358000] FIFO FULL: WR= 0  dataIn=17 full=1 empty=0
[362000] FIFO FULL: WR= 0  dataIn=17 full=1 empty=0
[366000] READ: RD= 1 dataOut=13 full=0 empty=0
[370000] WRITE: WR = 1 dataIn=17 full=1 empty=0
[374000] FIFO FULL: WR= 0  dataIn=18 full=1 empty=0
[378000] FIFO FULL: WR= 0  dataIn=18 full=1 empty=0
[382000] FIFO FULL: WR= 0  dataIn=18 full=1 empty=0
[386000] READ: RD= 1 dataOut=14 full=0 empty=0
[390000] WRITE: WR = 1 dataIn=18 full=1 empty=0
[394000] FIFO FULL: WR= 0  dataIn=19 full=1 empty=0
[398000] FIFO FULL: WR= 0  dataIn=19 full=1 empty=0
[402000] FIFO FULL: WR= 0  dataIn=19 full=1 empty=0
[406000] READ: RD= 1 dataOut=15 full=0 empty=0
[410000] WRITE: WR = 1 dataIn=19 full=1 empty=0
[414000] FIFO FULL: WR= 0  dataIn=20 full=1 empty=0
[418000] FIFO FULL: WR= 0  dataIn=20 full=1 empty=0
[422000] FIFO FULL: WR= 0  dataIn=20 full=1 empty=0
[426000] READ: RD= 1 dataOut=16 full=0 empty=0
[430000] WRITE: WR = 1 dataIn=20 full=1 empty=0
[434000] FIFO FULL: WR= 0  dataIn=21 full=1 empty=0
[438000] FIFO FULL: WR= 0  dataIn=21 full=1 empty=0
[442000] FIFO FULL: WR= 0  dataIn=21 full=1 empty=0
[446000] READ: RD= 1 dataOut=17 full=0 empty=0
[450000] WRITE: WR = 1 dataIn=21 full=1 empty=0
[454000] FIFO FULL: WR= 0  dataIn=22 full=1 empty=0
[458000] FIFO FULL: WR= 0  dataIn=22 full=1 empty=0
[462000] FIFO FULL: WR= 0  dataIn=22 full=1 empty=0
[466000] READ: RD= 1 dataOut=18 full=0 empty=0
[470000] WRITE: WR = 1 dataIn=22 full=1 empty=0
[474000] FIFO FULL: WR= 0  dataIn=23 full=1 empty=0
[478000] FIFO FULL: WR= 0  dataIn=23 full=1 empty=0
[482000] FIFO FULL: WR= 0  dataIn=23 full=1 empty=0
[486000] READ: RD= 1 dataOut=19 full=0 empty=0
[490000] WRITE: WR = 1 dataIn=23 full=1 empty=0
[494000] FIFO FULL: WR= 0  dataIn=24 full=1 empty=0
[498000] FIFO FULL: WR= 0  dataIn=24 full=1 empty=0
[502000] FIFO FULL: WR= 0  dataIn=24 full=1 empty=0
[506000] READ: RD= 1 dataOut=20 full=0 empty=0
[510000] WRITE: WR = 1 dataIn=24 full=1 empty=0
[514000] FIFO FULL: WR= 0  dataIn=25 full=1 empty=0
[518000] FIFO FULL: WR= 0  dataIn=25 full=1 empty=0
[522000] FIFO FULL: WR= 0  dataIn=25 full=1 empty=0
[526000] READ: RD= 1 dataOut=21 full=0 empty=0
[530000] WRITE: WR = 1 dataIn=25 full=1 empty=0
[534000] FIFO FULL: WR= 0  dataIn=26 full=1 empty=0
[538000] FIFO FULL: WR= 0  dataIn=26 full=1 empty=0
[542000] FIFO FULL: WR= 0  dataIn=26 full=1 empty=0
[546000] READ: RD= 1 dataOut=22 full=0 empty=0
[550000] WRITE: WR = 1 dataIn=26 full=1 empty=0
[554000] FIFO FULL: WR= 0  dataIn=27 full=1 empty=0
[558000] FIFO FULL: WR= 0  dataIn=27 full=1 empty=0
[562000] FIFO FULL: WR= 0  dataIn=27 full=1 empty=0
[566000] READ: RD= 1 dataOut=23 full=0 empty=0
[570000] WRITE: WR = 1 dataIn=27 full=1 empty=0
[574000] FIFO FULL: WR= 0  dataIn=28 full=1 empty=0
[578000] FIFO FULL: WR= 0  dataIn=28 full=1 empty=0
[582000] FIFO FULL: WR= 0  dataIn=28 full=1 empty=0
[586000] READ: RD= 1 dataOut=24 full=0 empty=0
[590000] WRITE: WR = 1 dataIn=28 full=1 empty=0
[594000] FIFO FULL: WR= 0  dataIn=29 full=1 empty=0
[598000] FIFO FULL: WR= 0  dataIn=29 full=1 empty=0
[602000] FIFO FULL: WR= 0  dataIn=29 full=1 empty=0
[606000] READ: RD= 1 dataOut=25 full=0 empty=0
[610000] WRITE: WR = 1 dataIn=29 full=1 empty=0
[614000] FIFO FULL: WR= 0  dataIn=30 full=1 empty=0
[618000] FIFO FULL: WR= 0  dataIn=30 full=1 empty=0
[622000] FIFO FULL: WR= 0  dataIn=30 full=1 empty=0
[626000] READ: RD= 1 dataOut=26 full=0 empty=0
[630000] WRITE: WR = 1 dataIn=30 full=1 empty=0
[634000] FIFO FULL: WR= 0  dataIn=31 full=1 empty=0
[638000] FIFO FULL: WR= 0  dataIn=31 full=1 empty=0
[642000] FIFO FULL: WR= 0  dataIn=31 full=1 empty=0
[646000] READ: RD= 1 dataOut=27 full=0 empty=0
[650000] WRITE: WR = 1 dataIn=31 full=1 empty=0
[654000] FIFO FULL: WR= 0  dataIn=32 full=1 empty=0
[658000] FIFO FULL: WR= 0  dataIn=32 full=1 empty=0
[662000] FIFO FULL: WR= 0  dataIn=32 full=1 empty=0
[666000] READ: RD= 1 dataOut=28 full=0 empty=0
[670000] WRITE: WR = 1 dataIn=32 full=1 empty=0
[674000] FIFO FULL: WR= 0  dataIn=33 full=1 empty=0
[678000] FIFO FULL: WR= 0  dataIn=33 full=1 empty=0
[682000] FIFO FULL: WR= 0  dataIn=33 full=1 empty=0
[686000] READ: RD= 1 dataOut=29 full=0 empty=0
[690000] WRITE: WR = 1 dataIn=33 full=1 empty=0
[694000] FIFO FULL: WR= 0  dataIn=34 full=1 empty=0
[698000] FIFO FULL: WR= 0  dataIn=34 full=1 empty=0
[702000] FIFO FULL: WR= 0  dataIn=34 full=1 empty=0
[706000] READ: RD= 1 dataOut=30 full=0 empty=0
[710000] WRITE: WR = 1 dataIn=34 full=1 empty=0
[714000] FIFO FULL: WR= 0  dataIn=35 full=1 empty=0
[718000] FIFO FULL: WR= 0  dataIn=35 full=1 empty=0
[722000] FIFO FULL: WR= 0  dataIn=35 full=1 empty=0
[726000] READ: RD= 1 dataOut=31 full=0 empty=0
[730000] WRITE: WR = 1 dataIn=35 full=1 empty=0
[734000] FIFO FULL: WR= 0  dataIn=36 full=1 empty=0
[738000] FIFO FULL: WR= 0  dataIn=36 full=1 empty=0
[742000] FIFO FULL: WR= 0  dataIn=36 full=1 empty=0
[746000] READ: RD= 1 dataOut=32 full=0 empty=0
[750000] WRITE: WR = 1 dataIn=36 full=1 empty=0
[754000] FIFO FULL: WR= 0  dataIn=37 full=1 empty=0
[758000] FIFO FULL: WR= 0  dataIn=37 full=1 empty=0
[762000] FIFO FULL: WR= 0  dataIn=37 full=1 empty=0
[766000] READ: RD= 1 dataOut=33 full=0 empty=0
[770000] WRITE: WR = 1 dataIn=37 full=1 empty=0
[774000] FIFO FULL: WR= 0  dataIn=38 full=1 empty=0
[778000] FIFO FULL: WR= 0  dataIn=38 full=1 empty=0
[782000] FIFO FULL: WR= 0  dataIn=38 full=1 empty=0
[786000] READ: RD= 1 dataOut=34 full=0 empty=0
[790000] WRITE: WR = 1 dataIn=38 full=1 empty=0
[794000] FIFO FULL: WR= 0  dataIn=39 full=1 empty=0
[798000] FIFO FULL: WR= 0  dataIn=39 full=1 empty=0
[802000] FIFO FULL: WR= 0  dataIn=39 full=1 empty=0
[806000] READ: RD= 1 dataOut=35 full=0 empty=0
[810000] WRITE: WR = 1 dataIn=39 full=1 empty=0
[814000] FIFO FULL: WR= 0  dataIn=40 full=1 empty=0
[818000] FIFO FULL: WR= 0  dataIn=40 full=1 empty=0
[822000] FIFO FULL: WR= 0  dataIn=40 full=1 empty=0
[826000] READ: RD= 1 dataOut=36 full=0 empty=0
[830000] WRITE: WR = 1 dataIn=40 full=1 empty=0
[834000] FIFO FULL: WR= 0  dataIn=41 full=1 empty=0
[838000] FIFO FULL: WR= 0  dataIn=41 full=1 empty=0
[842000] FIFO FULL: WR= 0  dataIn=41 full=1 empty=0
[846000] READ: RD= 1 dataOut=37 full=0 empty=0
[850000] WRITE: WR = 1 dataIn=41 full=1 empty=0
[854000] FIFO FULL: WR= 0  dataIn=42 full=1 empty=0
[858000] FIFO FULL: WR= 0  dataIn=42 full=1 empty=0
[862000] FIFO FULL: WR= 0  dataIn=42 full=1 empty=0
[866000] READ: RD= 1 dataOut=38 full=0 empty=0
[870000] WRITE: WR = 1 dataIn=42 full=1 empty=0
[874000] FIFO FULL: WR= 0  dataIn=43 full=1 empty=0
[878000] FIFO FULL: WR= 0  dataIn=43 full=1 empty=0
[882000] FIFO FULL: WR= 0  dataIn=43 full=1 empty=0
[886000] READ: RD= 1 dataOut=39 full=0 empty=0
[890000] WRITE: WR = 1 dataIn=43 full=1 empty=0
[894000] FIFO FULL: WR= 0  dataIn=44 full=1 empty=0
[898000] FIFO FULL: WR= 0  dataIn=44 full=1 empty=0
[902000] FIFO FULL: WR= 0  dataIn=44 full=1 empty=0
[906000] READ: RD= 1 dataOut=40 full=0 empty=0
[910000] WRITE: WR = 1 dataIn=44 full=1 empty=0
[914000] FIFO FULL: WR= 0  dataIn=45 full=1 empty=0
[918000] FIFO FULL: WR= 0  dataIn=45 full=1 empty=0
[922000] FIFO FULL: WR= 0  dataIn=45 full=1 empty=0
[926000] READ: RD= 1 dataOut=41 full=0 empty=0
[930000] WRITE: WR = 1 dataIn=45 full=1 empty=0
[934000] FIFO FULL: WR= 0  dataIn=46 full=1 empty=0
[938000] FIFO FULL: WR= 0  dataIn=46 full=1 empty=0
[942000] FIFO FULL: WR= 0  dataIn=46 full=1 empty=0
[946000] READ: RD= 1 dataOut=42 full=0 empty=0
[950000] WRITE: WR = 1 dataIn=46 full=1 empty=0
[954000] FIFO FULL: WR= 0  dataIn=47 full=1 empty=0
[958000] FIFO FULL: WR= 0  dataIn=47 full=1 empty=0
[962000] FIFO FULL: WR= 0  dataIn=47 full=1 empty=0
[966000] READ: RD= 1 dataOut=43 full=0 empty=0
[970000] WRITE: WR = 1 dataIn=47 full=1 empty=0
[974000] FIFO FULL: WR= 0  dataIn=48 full=1 empty=0
[978000] FIFO FULL: WR= 0  dataIn=48 full=1 empty=0
[982000] FIFO FULL: WR= 0  dataIn=48 full=1 empty=0
[986000] READ: RD= 1 dataOut=44 full=0 empty=0
[990000] WRITE: WR = 1 dataIn=48 full=1 empty=0
[994000] FIFO FULL: WR= 0  dataIn=49 full=1 empty=0
[998000] FIFO FULL: WR= 0  dataIn=49 full=1 empty=0
[1002000] FIFO FULL: WR= 0  dataIn=49 full=1 empty=0
[1006000] READ: RD= 1 dataOut=45 full=0 empty=0
[1010000] WRITE: WR = 1 dataIn=49 full=1 empty=0
[1014000] FIFO FULL: WR= 0  dataIn=50 full=1 empty=0
[1018000] FIFO FULL: WR= 0  dataIn=50 full=1 empty=0
[1022000] FIFO FULL: WR= 0  dataIn=50 full=1 empty=0
[1026000] READ: RD= 1 dataOut=46 full=0 empty=0
[1030000] WRITE: WR = 1 dataIn=50 full=1 empty=0
[1034000] FIFO FULL: WR= 0  dataIn=51 full=1 empty=0
[1038000] FIFO FULL: WR= 0  dataIn=51 full=1 empty=0
[1042000] FIFO FULL: WR= 0  dataIn=51 full=1 empty=0
[1046000] READ: RD= 1 dataOut=47 full=0 empty=0
[1050000] WRITE: WR = 1 dataIn=51 full=1 empty=0
[1054000] FIFO FULL: WR= 0  dataIn=52 full=1 empty=0
[1058000] FIFO FULL: WR= 0  dataIn=52 full=1 empty=0
[1062000] FIFO FULL: WR= 0  dataIn=52 full=1 empty=0
[1066000] READ: RD= 1 dataOut=48 full=0 empty=0
[1070000] WRITE: WR = 1 dataIn=52 full=1 empty=0
[1074000] FIFO FULL: WR= 0  dataIn=53 full=1 empty=0
[1078000] FIFO FULL: WR= 0  dataIn=53 full=1 empty=0
[1082000] FIFO FULL: WR= 0  dataIn=53 full=1 empty=0
[1086000] READ: RD= 1 dataOut=49 full=0 empty=0
[1090000] WRITE: WR = 1 dataIn=53 full=1 empty=0
[1094000] FIFO FULL: WR= 0  dataIn=54 full=1 empty=0
[1098000] FIFO FULL: WR= 0  dataIn=54 full=1 empty=0
[1102000] FIFO FULL: WR= 0  dataIn=54 full=1 empty=0
[1106000] READ: RD= 1 dataOut=50 full=0 empty=0
[1110000] WRITE: WR = 1 dataIn=54 full=1 empty=0
[1114000] FIFO FULL: WR= 0  dataIn=55 full=1 empty=0
[1118000] FIFO FULL: WR= 0  dataIn=55 full=1 empty=0
[1122000] FIFO FULL: WR= 0  dataIn=55 full=1 empty=0
[1126000] READ: RD= 1 dataOut=51 full=0 empty=0
[1130000] WRITE: WR = 1 dataIn=55 full=1 empty=0
[1134000] FIFO FULL: WR= 0  dataIn=56 full=1 empty=0
[1138000] FIFO FULL: WR= 0  dataIn=56 full=1 empty=0
[1142000] FIFO FULL: WR= 0  dataIn=56 full=1 empty=0
[1146000] READ: RD= 1 dataOut=52 full=0 empty=0
[1150000] WRITE: WR = 1 dataIn=56 full=1 empty=0
[1154000] FIFO FULL: WR= 0  dataIn=57 full=1 empty=0
[1158000] FIFO FULL: WR= 0  dataIn=57 full=1 empty=0
[1162000] FIFO FULL: WR= 0  dataIn=57 full=1 empty=0
[1166000] READ: RD= 1 dataOut=53 full=0 empty=0
[1170000] WRITE: WR = 1 dataIn=57 full=1 empty=0
[1174000] FIFO FULL: WR= 0  dataIn=58 full=1 empty=0
[1178000] FIFO FULL: WR= 0  dataIn=58 full=1 empty=0
[1182000] FIFO FULL: WR= 0  dataIn=58 full=1 empty=0
[1186000] READ: RD= 1 dataOut=54 full=0 empty=0
[1190000] WRITE: WR = 1 dataIn=58 full=1 empty=0
[1194000] FIFO FULL: WR= 0  dataIn=59 full=1 empty=0
[1198000] FIFO FULL: WR= 0  dataIn=59 full=1 empty=0
[1202000] FIFO FULL: WR= 0  dataIn=59 full=1 empty=0
[1206000] READ: RD= 1 dataOut=55 full=0 empty=0
[1210000] WRITE: WR = 1 dataIn=59 full=1 empty=0
[1214000] FIFO FULL: WR= 0  dataIn=60 full=1 empty=0
[1218000] FIFO FULL: WR= 0  dataIn=60 full=1 empty=0
[1222000] FIFO FULL: WR= 0  dataIn=60 full=1 empty=0
[1226000] READ: RD= 1 dataOut=56 full=0 empty=0
[1230000] WRITE: WR = 1 dataIn=60 full=1 empty=0
[1234000] FIFO FULL: WR= 0  dataIn=61 full=1 empty=0
[1238000] FIFO FULL: WR= 0  dataIn=61 full=1 empty=0
[1242000] FIFO FULL: WR= 0  dataIn=61 full=1 empty=0
[1246000] READ: RD= 1 dataOut=57 full=0 empty=0
[1250000] WRITE: WR = 1 dataIn=61 full=1 empty=0
[1254000] FIFO FULL: WR= 0  dataIn=62 full=1 empty=0
[1258000] FIFO FULL: WR= 0  dataIn=62 full=1 empty=0
[1262000] FIFO FULL: WR= 0  dataIn=62 full=1 empty=0
[1266000] READ: RD= 1 dataOut=58 full=0 empty=0
[1270000] WRITE: WR = 1 dataIn=62 full=1 empty=0
[1274000] FIFO FULL: WR= 0  dataIn=63 full=1 empty=0
[1278000] FIFO FULL: WR= 0  dataIn=63 full=1 empty=0
[1282000] FIFO FULL: WR= 0  dataIn=63 full=1 empty=0
[1286000] READ: RD= 1 dataOut=59 full=0 empty=0
[1290000] WRITE: WR = 1 dataIn=63 full=1 empty=0
[1294000] FIFO FULL: WR= 0  dataIn=64 full=1 empty=0
[1298000] FIFO FULL: WR= 0  dataIn=64 full=1 empty=0
[1302000] FIFO FULL: WR= 0  dataIn=64 full=1 empty=0
[1306000] READ: RD= 1 dataOut=60 full=0 empty=0
[1310000] WRITE: WR = 1 dataIn=64 full=1 empty=0
[1314000] FIFO FULL: WR= 0  dataIn=65 full=1 empty=0
[1318000] FIFO FULL: WR= 0  dataIn=65 full=1 empty=0
[1322000] FIFO FULL: WR= 0  dataIn=65 full=1 empty=0
[1326000] READ: RD= 1 dataOut=61 full=0 empty=0
[1330000] WRITE: WR = 1 dataIn=65 full=1 empty=0
[1334000] FIFO FULL: WR= 0  dataIn=66 full=1 empty=0
[1338000] FIFO FULL: WR= 0  dataIn=66 full=1 empty=0
[1342000] FIFO FULL: WR= 0  dataIn=66 full=1 empty=0
[1346000] READ: RD= 1 dataOut=62 full=0 empty=0
[1350000] WRITE: WR = 1 dataIn=66 full=1 empty=0
[1354000] FIFO FULL: WR= 0  dataIn=67 full=1 empty=0
[1358000] FIFO FULL: WR= 0  dataIn=67 full=1 empty=0
[1362000] FIFO FULL: WR= 0  dataIn=67 full=1 empty=0
[1366000] READ: RD= 1 dataOut=63 full=0 empty=0
[1370000] WRITE: WR = 1 dataIn=67 full=1 empty=0
[1374000] FIFO FULL: WR= 0  dataIn=68 full=1 empty=0
[1378000] FIFO FULL: WR= 0  dataIn=68 full=1 empty=0
[1382000] FIFO FULL: WR= 0  dataIn=68 full=1 empty=0
[1386000] READ: RD= 1 dataOut=64 full=0 empty=0
[1390000] WRITE: WR = 1 dataIn=68 full=1 empty=0
[1394000] FIFO FULL: WR= 0  dataIn=69 full=1 empty=0
[1398000] FIFO FULL: WR= 0  dataIn=69 full=1 empty=0
[1402000] FIFO FULL: WR= 0  dataIn=69 full=1 empty=0
[1406000] READ: RD= 1 dataOut=65 full=0 empty=0
[1410000] WRITE: WR = 1 dataIn=69 full=1 empty=0
[1414000] FIFO FULL: WR= 0  dataIn=70 full=1 empty=0
[1418000] FIFO FULL: WR= 0  dataIn=70 full=1 empty=0
[1422000] FIFO FULL: WR= 0  dataIn=70 full=1 empty=0
[1426000] READ: RD= 1 dataOut=66 full=0 empty=0
[1430000] WRITE: WR = 1 dataIn=70 full=1 empty=0
[1434000] FIFO FULL: WR= 0  dataIn=71 full=1 empty=0
[1438000] FIFO FULL: WR= 0  dataIn=71 full=1 empty=0
[1442000] FIFO FULL: WR= 0  dataIn=71 full=1 empty=0
[1446000] READ: RD= 1 dataOut=67 full=0 empty=0
[1450000] WRITE: WR = 1 dataIn=71 full=1 empty=0
[1454000] FIFO FULL: WR= 0  dataIn=72 full=1 empty=0
[1458000] FIFO FULL: WR= 0  dataIn=72 full=1 empty=0
[1462000] FIFO FULL: WR= 0  dataIn=72 full=1 empty=0
[1466000] READ: RD= 1 dataOut=68 full=0 empty=0
[1470000] WRITE: WR = 1 dataIn=72 full=1 empty=0
[1474000] FIFO FULL: WR= 0  dataIn=73 full=1 empty=0
[1478000] FIFO FULL: WR= 0  dataIn=73 full=1 empty=0
[1482000] FIFO FULL: WR= 0  dataIn=73 full=1 empty=0
[1486000] READ: RD= 1 dataOut=69 full=0 empty=0
[1490000] WRITE: WR = 1 dataIn=73 full=1 empty=0
[1494000] FIFO FULL: WR= 0  dataIn=74 full=1 empty=0
[1498000] FIFO FULL: WR= 0  dataIn=74 full=1 empty=0
[1502000] FIFO FULL: WR= 0  dataIn=74 full=1 empty=0
[1506000] READ: RD= 1 dataOut=70 full=0 empty=0
[1510000] WRITE: WR = 1 dataIn=74 full=1 empty=0
[1514000] FIFO FULL: WR= 0  dataIn=75 full=1 empty=0
[1518000] FIFO FULL: WR= 0  dataIn=75 full=1 empty=0
[1522000] FIFO FULL: WR= 0  dataIn=75 full=1 empty=0
[1526000] READ: RD= 1 dataOut=71 full=0 empty=0
[1530000] WRITE: WR = 1 dataIn=75 full=1 empty=0
[1534000] FIFO FULL: WR= 0  dataIn=76 full=1 empty=0
[1538000] FIFO FULL: WR= 0  dataIn=76 full=1 empty=0
[1542000] FIFO FULL: WR= 0  dataIn=76 full=1 empty=0
[1546000] READ: RD= 1 dataOut=72 full=0 empty=0
[1550000] WRITE: WR = 1 dataIn=76 full=1 empty=0
[1554000] FIFO FULL: WR= 0  dataIn=77 full=1 empty=0
[1558000] FIFO FULL: WR= 0  dataIn=77 full=1 empty=0
[1562000] FIFO FULL: WR= 0  dataIn=77 full=1 empty=0
[1566000] READ: RD= 1 dataOut=73 full=0 empty=0
[1570000] WRITE: WR = 1 dataIn=77 full=1 empty=0
[1574000] FIFO FULL: WR= 0  dataIn=78 full=1 empty=0
[1578000] FIFO FULL: WR= 0  dataIn=78 full=1 empty=0
[1582000] FIFO FULL: WR= 0  dataIn=78 full=1 empty=0
[1586000] READ: RD= 1 dataOut=74 full=0 empty=0
[1590000] WRITE: WR = 1 dataIn=78 full=1 empty=0
[1594000] FIFO FULL: WR= 0  dataIn=79 full=1 empty=0
[1598000] FIFO FULL: WR= 0  dataIn=79 full=1 empty=0
[1602000] FIFO FULL: WR= 0  dataIn=79 full=1 empty=0
[1606000] READ: RD= 1 dataOut=75 full=0 empty=0
[1610000] WRITE: WR = 1 dataIn=79 full=1 empty=0
[1614000] FIFO FULL: WR= 0  dataIn=80 full=1 empty=0
[1618000] FIFO FULL: WR= 0  dataIn=80 full=1 empty=0
[1622000] FIFO FULL: WR= 0  dataIn=80 full=1 empty=0
[1626000] READ: RD= 1 dataOut=76 full=0 empty=0
[1630000] WRITE: WR = 1 dataIn=80 full=1 empty=0
[1634000] FIFO FULL: WR= 0  dataIn=81 full=1 empty=0
[1638000] FIFO FULL: WR= 0  dataIn=81 full=1 empty=0
[1642000] FIFO FULL: WR= 0  dataIn=81 full=1 empty=0
[1646000] READ: RD= 1 dataOut=77 full=0 empty=0
[1650000] WRITE: WR = 1 dataIn=81 full=1 empty=0
[1654000] FIFO FULL: WR= 0  dataIn=82 full=1 empty=0
[1658000] FIFO FULL: WR= 0  dataIn=82 full=1 empty=0
[1662000] FIFO FULL: WR= 0  dataIn=82 full=1 empty=0
[1666000] READ: RD= 1 dataOut=78 full=0 empty=0
[1670000] WRITE: WR = 1 dataIn=82 full=1 empty=0
[1674000] FIFO FULL: WR= 0  dataIn=83 full=1 empty=0
[1678000] FIFO FULL: WR= 0  dataIn=83 full=1 empty=0
[1682000] FIFO FULL: WR= 0  dataIn=83 full=1 empty=0
[1686000] READ: RD= 1 dataOut=79 full=0 empty=0
[1690000] WRITE: WR = 1 dataIn=83 full=1 empty=0
[1694000] FIFO FULL: WR= 0  dataIn=84 full=1 empty=0
[1698000] FIFO FULL: WR= 0  dataIn=84 full=1 empty=0
[1702000] FIFO FULL: WR= 0  dataIn=84 full=1 empty=0
[1706000] READ: RD= 1 dataOut=80 full=0 empty=0
[1710000] WRITE: WR = 1 dataIn=84 full=1 empty=0
[1714000] FIFO FULL: WR= 0  dataIn=85 full=1 empty=0
[1718000] FIFO FULL: WR= 0  dataIn=85 full=1 empty=0
[1722000] FIFO FULL: WR= 0  dataIn=85 full=1 empty=0
[1726000] READ: RD= 1 dataOut=81 full=0 empty=0
[1730000] WRITE: WR = 1 dataIn=85 full=1 empty=0
[1734000] FIFO FULL: WR= 0  dataIn=86 full=1 empty=0
[1738000] FIFO FULL: WR= 0  dataIn=86 full=1 empty=0
[1742000] FIFO FULL: WR= 0  dataIn=86 full=1 empty=0
[1746000] READ: RD= 1 dataOut=82 full=0 empty=0
[1750000] WRITE: WR = 1 dataIn=86 full=1 empty=0
[1754000] FIFO FULL: WR= 0  dataIn=87 full=1 empty=0
[1758000] FIFO FULL: WR= 0  dataIn=87 full=1 empty=0
[1762000] FIFO FULL: WR= 0  dataIn=87 full=1 empty=0
[1766000] READ: RD= 1 dataOut=83 full=0 empty=0
